Лимит подарков              giftCoins                   40000
Свободный лимит             giftCoinsFree               40000
Зомбаксы                    @CASH                       337
Монеты                      @COINS                      1487
Дублон                      @DUBLON                     1498


Сталь                       @CR_47                      985
Болт                        @CR_53                      100
Резина                      @CR_68                      98
Синее сердце                @CR_33                      84
Доска                       @CR_11                      38508
Брёвна пальмы               @CR_41                      8894
Металлолом                  @METAL_SCRAP                182938
Чёрная рука                 @S_34                       15590
Любовь                      @CR_31                      3821
Огонь                       @CR_29                      108
Трансформатор               @CR_23                      185
Супер-клей                  @CR_17                      126
Альбом                      @R_33                       1
Зелёная краска              @CR_08                      78


Коллекция палача            C_48                        50
Коллекция Анти-зомби        C_19                        836
Коллекция Белого кролика    C_16                        402
Коллекция Цветов            C_17                        2496
Строительная коллекция      C_8                         28
Тинейджерская коллекция     C_22                        729
Звёздная коллекция          C_1                         150
Ёлочная коллекция           C_15                        40
