Лимит подарков              giftCoins                   40000
Свободный лимит             giftCoinsFree               40000
Зомбаксы                    @CASH                       165
Монеты                      @COINS                      2687
Дублон                      @DUBLON                     1243


Сталь                       @CR_47                      2414
Болт                        @CR_53                      100
Резина                      @CR_68                      95
Синее сердце                @CR_33                      89
Доска                       @CR_11                      34297
Брёвна пальмы               @CR_41                      9631
Металлолом                  @METAL_SCRAP                51
Чёрная рука                 @S_34                       9991
Любовь                      @CR_31                      3812
Огонь                       @CR_29                      110
Трансформатор               @CR_23                      155
Супер-клей                  @CR_17                      30
Альбом                      @R_33                       20
Зелёная краска              @CR_08                      51


Коллекция палача            C_48                        50
Коллекция Анти-зомби        C_19                        845
Коллекция Белого кролика    C_16                        307
Коллекция Цветов            C_17                        2362
Строительная коллекция      C_8                         25
Тинейджерская коллекция     C_22                        849
Звёздная коллекция          C_1                         146
Ёлочная коллекция           C_15                        46
